\relax 
\providecommand\hyper@newdestlabel[2]{}
\providecommand\HyperFirstAtBeginDocument{\AtBeginDocument}
\HyperFirstAtBeginDocument{\ifx\hyper@anchor\@undefined
\global\let\oldcontentsline\contentsline
\gdef\contentsline#1#2#3#4{\oldcontentsline{#1}{#2}{#3}}
\global\let\oldnewlabel\newlabel
\gdef\newlabel#1#2{\newlabelxx{#1}#2}
\gdef\newlabelxx#1#2#3#4#5#6{\oldnewlabel{#1}{{#2}{#3}}}
\AtEndDocument{\ifx\hyper@anchor\@undefined
\let\contentsline\oldcontentsline
\let\newlabel\oldnewlabel
\fi}
\fi}
\global\let\hyper@last\relax 
\gdef\HyperFirstAtBeginDocument#1{#1}
\providecommand*\HyPL@Entry[1]{}
\bibstyle{biblatex}
\bibdata{Mason_Prospectus_2015_v2-blx,2015DDIG}
\citation{biblatex-control}
\citation{DeQueiroz2007}
\citation{Mayr1982}
\citation{Cracraft1983}
\citation{Zink2000}
\citation{Ghalambor2007}
\citation{West-Eberhard1989}
\citation{Agrawal2001}
\citation{Rosenberg2002}
\citation{Doyle1992}
\citation{Maddison1997}
\citation{McCormack2013}
\citation{Lemmon2013}
\citation{Wagner2013}
\citation{Jones2015}
\citation{Bi2013}
\citation{Wandeler2007}
\citation{Mason2014}
\citation{Drovetski2014}
\citation{Drovetski2014}
\HyPL@Entry{0<</S/D>>}
\@writefile{toc}{\boolfalse {citerequest}\boolfalse {citetracker}\boolfalse {pagetracker}\boolfalse {backtracker}\relax }
\@writefile{lof}{\boolfalse {citerequest}\boolfalse {citetracker}\boolfalse {pagetracker}\boolfalse {backtracker}\relax }
\@writefile{lot}{\boolfalse {citerequest}\boolfalse {citetracker}\boolfalse {pagetracker}\boolfalse {backtracker}\relax }
\abx@aux@page{1}{1}
\abx@aux@page{2}{1}
\abx@aux@page{3}{1}
\abx@aux@page{4}{1}
\abx@aux@page{5}{1}
\abx@aux@page{6}{1}
\abx@aux@page{7}{1}
\abx@aux@page{8}{1}
\abx@aux@page{9}{1}
\abx@aux@page{10}{1}
\abx@aux@page{11}{1}
\abx@aux@page{12}{1}
\abx@aux@page{13}{1}
\abx@aux@page{14}{1}
\abx@aux@page{15}{1}
\abx@aux@page{16}{1}
\abx@aux@page{17}{1}
\abx@aux@page{18}{1}
\abx@aux@page{19}{1}
\abx@aux@page{20}{3}
\abx@aux@page{21}{3}
\abx@aux@page{22}{3}
\abx@aux@page{23}{3}
\abx@aux@page{24}{3}
\abx@aux@page{25}{3}
\abx@aux@page{26}{3}
\abx@aux@page{27}{3}
\abx@aux@page{28}{3}
\abx@aux@page{29}{3}
\abx@aux@page{30}{3}
\abx@aux@page{31}{3}
\abx@aux@page{32}{3}
\abx@aux@page{33}{3}
\abx@aux@page{34}{3}
\abx@aux@page{35}{3}
\abx@aux@page{36}{3}
\abx@aux@page{37}{3}
