\relax 
\providecommand\hyper@newdestlabel[2]{}
\providecommand\HyperFirstAtBeginDocument{\AtBeginDocument}
\HyperFirstAtBeginDocument{\ifx\hyper@anchor\@undefined
\global\let\oldcontentsline\contentsline
\gdef\contentsline#1#2#3#4{\oldcontentsline{#1}{#2}{#3}}
\global\let\oldnewlabel\newlabel
\gdef\newlabel#1#2{\newlabelxx{#1}#2}
\gdef\newlabelxx#1#2#3#4#5#6{\oldnewlabel{#1}{{#2}{#3}}}
\AtEndDocument{\ifx\hyper@anchor\@undefined
\let\contentsline\oldcontentsline
\let\newlabel\oldnewlabel
\fi}
\fi}
\global\let\hyper@last\relax 
\gdef\HyperFirstAtBeginDocument#1{#1}
\providecommand*\HyPL@Entry[1]{}
\bibstyle{biblatex}
\bibdata{Mason_ProjectDescription_v1.5-blx,2015DDIG}
\citation{biblatex-control}
\citation{DeQueiroz2007}
\citation{Mayr1982}
\citation{Cracraft1983}
\citation{Ronquist2011}
\citation{Zink2000}
\citation{Lovette2002}
\citation{Ghalambor2007}
\citation{West-Eberhard1989}
\citation{Agrawal2001}
\citation{Price2003}
\citation{Maddison1997}
\citation{Rosenberg2002}
\citation{Doyle1992}
\citation{Templeton2004}
\citation{Wagner2013}
\citation{McCormack2013}
\citation{Lemmon2013}
\citation{Jones2015}
\citation{Bi2013}
\citation{Enghoff2005}
\citation{Sanmartin2001}
\citation{Peters2014}
\citation{Zink1995}
\citation{Sanmartin2001}
\HyPL@Entry{0<</S/D>>}
\@writefile{toc}{\boolfalse {citerequest}\boolfalse {citetracker}\boolfalse {pagetracker}\boolfalse {backtracker}\relax }
\@writefile{lof}{\boolfalse {citerequest}\boolfalse {citetracker}\boolfalse {pagetracker}\boolfalse {backtracker}\relax }
\@writefile{lot}{\boolfalse {citerequest}\boolfalse {citetracker}\boolfalse {pagetracker}\boolfalse {backtracker}\relax }
\abx@aux@page{1}{1}
\abx@aux@page{2}{1}
\abx@aux@page{3}{1}
\abx@aux@page{4}{1}
\abx@aux@page{5}{1}
\abx@aux@page{6}{1}
\abx@aux@page{7}{1}
\abx@aux@page{8}{1}
\abx@aux@page{9}{1}
\abx@aux@page{10}{1}
\abx@aux@page{11}{1}
\abx@aux@page{12}{1}
\abx@aux@page{13}{1}
\abx@aux@page{14}{1}
\abx@aux@page{15}{1}
\abx@aux@page{16}{1}
\abx@aux@page{17}{1}
\abx@aux@page{18}{1}
\abx@aux@page{19}{1}
\abx@aux@page{20}{1}
\abx@aux@page{21}{1}
\abx@aux@page{22}{1}
\abx@aux@page{23}{1}
\abx@aux@page{24}{1}
\citation{Clements2015}
\citation{Behle1942}
\citation{Cramp1985}
\citation{Alstrom2013}
\citation{Drovetski2014}
\citation{Alstrom2013}
\citation{Drovetski2005}
\citation{Mason2014}
\citation{Drovetski2014}
\abx@aux@page{25}{2}
\abx@aux@page{26}{2}
\abx@aux@page{27}{2}
\abx@aux@page{28}{2}
\abx@aux@page{29}{2}
\abx@aux@page{30}{2}
\abx@aux@page{31}{2}
\abx@aux@page{32}{2}
\citation{Alstrom2013}
\citation{Mason2014}
\citation{Beason1995}
\citation{Beason1995}
\citation{Endler1978}
\citation{Zink1986}
\citation{Behle1942}
\citation{Mason2015}
\citation{Mason2014}
\citation{Drovetski2014}
\citation{Drovetski2014}
\abx@aux@page{33}{3}
\abx@aux@page{34}{3}
\abx@aux@page{35}{3}
\abx@aux@page{36}{3}
\abx@aux@page{37}{3}
\abx@aux@page{38}{3}
\abx@aux@page{39}{3}
\abx@aux@page{40}{3}
\abx@aux@page{41}{3}
\abx@aux@page{42}{3}
\abx@aux@page{43}{3}
\abx@aux@page{44}{3}
\abx@aux@page{45}{5}
\abx@aux@page{46}{5}
\abx@aux@page{47}{5}
\abx@aux@page{48}{5}
\abx@aux@page{49}{5}
\abx@aux@page{50}{5}
\abx@aux@page{51}{5}
\abx@aux@page{52}{5}
\abx@aux@page{53}{5}
\abx@aux@page{54}{5}
\abx@aux@page{55}{5}
\abx@aux@page{56}{5}
\abx@aux@page{57}{5}
\abx@aux@page{58}{5}
\abx@aux@page{59}{5}
\abx@aux@page{60}{5}
\abx@aux@page{61}{5}
\abx@aux@page{62}{5}
\abx@aux@page{63}{5}
\abx@aux@page{64}{5}
\abx@aux@page{65}{5}
\abx@aux@page{66}{5}
\abx@aux@page{67}{6}
\abx@aux@page{68}{6}
\abx@aux@page{69}{6}
\abx@aux@page{70}{6}
\abx@aux@page{71}{6}
\abx@aux@page{72}{6}
\abx@aux@page{73}{6}
\abx@aux@page{74}{6}
\abx@aux@page{75}{6}
\abx@aux@page{76}{6}
\abx@aux@page{77}{6}
\abx@aux@page{78}{6}
