\relax 
\providecommand\hyper@newdestlabel[2]{}
\providecommand\HyperFirstAtBeginDocument{\AtBeginDocument}
\HyperFirstAtBeginDocument{\ifx\hyper@anchor\@undefined
\global\let\oldcontentsline\contentsline
\gdef\contentsline#1#2#3#4{\oldcontentsline{#1}{#2}{#3}}
\global\let\oldnewlabel\newlabel
\gdef\newlabel#1#2{\newlabelxx{#1}#2}
\gdef\newlabelxx#1#2#3#4#5#6{\oldnewlabel{#1}{{#2}{#3}}}
\AtEndDocument{\ifx\hyper@anchor\@undefined
\let\contentsline\oldcontentsline
\let\newlabel\oldnewlabel
\fi}
\fi}
\global\let\hyper@last\relax 
\gdef\HyperFirstAtBeginDocument#1{#1}
\providecommand*\HyPL@Entry[1]{}
\bibstyle{biblatex}
\bibdata{Mason_ProjectDescription_v5-blx,2015DDIG}
\citation{biblatex-control}
\citation{Kawecki2004}
\citation{West-Eberhard1989}
\citation{Agrawal2001}
\citation{Price2003}
\citation{Arnold2001}
\citation{Lovette2002}
\citation{Andersson2006}
\citation{Endler1978}
\citation{Kettlewell1955}
\citation{Hoekstra2006}
\citation{Rosenblum2010}
\citation{Linnen2009}
\citation{Linnen2013}
\citation{Rosenblum2010}
\citation{Hof2011}
\citation{Stevens2009}
\citation{Baldwin1986}
\citation{Sexton2009}
\citation{Kirkpatrick1997}
\citation{Price2003}
\citation{Schluter2001}
\citation{Soberon2007}
\HyPL@Entry{0<</S/D>>}
\@writefile{toc}{\boolfalse {citerequest}\boolfalse {citetracker}\boolfalse {pagetracker}\boolfalse {backtracker}\relax }
\@writefile{lof}{\boolfalse {citerequest}\boolfalse {citetracker}\boolfalse {pagetracker}\boolfalse {backtracker}\relax }
\@writefile{lot}{\boolfalse {citerequest}\boolfalse {citetracker}\boolfalse {pagetracker}\boolfalse {backtracker}\relax }
\abx@aux@page{1}{1}
\abx@aux@page{2}{1}
\abx@aux@page{3}{1}
\abx@aux@page{4}{1}
\abx@aux@page{5}{1}
\abx@aux@page{6}{1}
\abx@aux@page{7}{1}
\abx@aux@page{8}{1}
\abx@aux@page{9}{1}
\abx@aux@page{10}{1}
\abx@aux@page{11}{1}
\abx@aux@page{12}{1}
\abx@aux@page{13}{1}
\abx@aux@page{14}{1}
\abx@aux@page{15}{1}
\abx@aux@page{16}{1}
\abx@aux@page{17}{1}
\abx@aux@page{18}{1}
\abx@aux@page{19}{1}
\abx@aux@page{20}{1}
\abx@aux@page{21}{1}
\abx@aux@page{22}{1}
\citation{Alstrom2013}
\citation{Clements2015}
\citation{Pearson2012}
\citation{Du2014}
\citation{Juana2004}
\citation{Ryan1999}
\citation{Zink1986}
\citation{Behle1942}
\citation{Clements2015}
\citation{Behle1942}
\citation{Cramp1985}
\citation{Drovetski2014}
\citation{Mason2014}
\citation{Drovetski2014}
\citation{Alstrom2013}
\citation{Lerner2011}
\citation{Zink2008}
\citation{Avise1987}
\citation{Toews2012}
\citation{Edwards2009}
\citation{DeQueiroz2007}
\citation{Mayr1982}
\citation{Cracraft1983}
\citation{Giarla2015}
\citation{Knowles2008}
\citation{Maddison1997}
\citation{Rosenberg2002}
\citation{Doyle1992}
\citation{Templeton2004}
\citation{Wagner2013}
\citation{McCormack2013}
\citation{Lemmon2013}
\citation{Jones2015}
\citation{Bi2013}
\abx@aux@page{23}{2}
\abx@aux@page{24}{2}
\abx@aux@page{25}{2}
\abx@aux@page{26}{2}
\abx@aux@page{27}{2}
\abx@aux@page{28}{2}
\abx@aux@page{29}{2}
\abx@aux@page{30}{2}
\abx@aux@page{31}{2}
\abx@aux@page{32}{2}
\abx@aux@page{33}{2}
\abx@aux@page{34}{2}
\abx@aux@page{35}{2}
\abx@aux@page{36}{2}
\abx@aux@page{37}{2}
\abx@aux@page{38}{2}
\abx@aux@page{39}{2}
\abx@aux@page{40}{2}
\abx@aux@page{41}{2}
\abx@aux@page{42}{2}
\abx@aux@page{43}{2}
\abx@aux@page{44}{2}
\abx@aux@page{45}{2}
\abx@aux@page{46}{2}
\abx@aux@page{47}{2}
\abx@aux@page{48}{2}
\abx@aux@page{49}{2}
\abx@aux@page{50}{2}
\citation{McCormack2012a}
\citation{Lemmon2012}
\citation{Lanier2014}
\citation{Penalba2014}
\citation{Kimball2009}
\citation{Backstrom2008}
\citation{Wang2012}
\citation{Backstrom2008}
\citation{Kimball2009}
\citation{Wang2012}
\@writefile{lof}{\defcounter {refsection}{0}\relax }\@writefile{lof}{\contentsline {figure}{\numberline {1}{\ignorespaces \textbf  {Preliminary mtDNA phylogeographic analysis using BEAST, distribution map, and geographic variation within \textit  {Eremophila}.} (A) mtDNA phylogeny based on ND2 sequences of 435 individuals (combination of GenBank and unpublished preliminary data). Colored bars to the right of the phylogeny display different taxonomic treatments for \textit  {Eremophila}; the Drovetski et al. (2014) proposal in bold is used in panels B and C. White circles indicate nodes with posterior probability $\geq $ 0.95. Time scale in million years shown above is based on ND2 substitution rates. Dotted red line indicates cutoff used by GMYC delimitation method to identify putative taxonomic entities. (B) Distribution of \textit  {Eremophila} with colors corresponding to phylogroups \textit  {sensu} Drovetski et al. (2014). (C) Geographic variation among phylogroups within \textit  {Eremophila}. Number of subspecies shown in parentheses.\relax }}{3}{figure.caption.1}}
\abx@aux@page{51}{3}
\abx@aux@page{52}{3}
\abx@aux@page{53}{3}
\abx@aux@page{54}{3}
\abx@aux@page{55}{3}
\abx@aux@page{56}{3}
\abx@aux@page{57}{3}
\abx@aux@page{58}{3}
\abx@aux@page{59}{3}
\abx@aux@page{60}{3}
\abx@aux@page{61}{3}
\abx@aux@page{62}{3}
\abx@aux@page{63}{3}
\citation{Rohland2012}
\citation{Penalba2014}
\citation{Bi2013}
\citation{Paabo2004}
\citation{Kircher2011}
\citation{Katoh2013}
\citation{Lanfear2012}
\citation{Stamatakis2008}
\citation{Ronquist2003}
\citation{Degnan2009}
\citation{Bouckaert2014}
\citation{Kubatko2009}
\citation{Fujita2012}
\citation{Carstens2013}
\citation{Yang2010}
\citation{Ence2011}
\citation{Yang2015}
\citation{Yang2015}
\citation{Solis-Lemus2015}
\citation{Ence2011}
\citation{Pons2006}
\citation{Fujisawa2013}
\citation{Pritchard2000}
\citation{Solis-Lemus2015}
\citation{Dayrat2005}
\citation{Drovetski2014}
\citation{Mason2014}
\citation{Katoh2013}
\citation{Bouckaert2014}
\citation{Lerner2011}
\citation{Pons2006}
\citation{Fujisawa2013}
\citation{Drovetski2014}
\citation{Drovetski2014}
\abx@aux@page{64}{4}
\abx@aux@page{65}{4}
\abx@aux@page{66}{4}
\abx@aux@page{67}{4}
\abx@aux@page{68}{4}
\abx@aux@page{69}{4}
\abx@aux@page{70}{4}
\abx@aux@page{71}{4}
\@writefile{lot}{\defcounter {refsection}{0}\relax }\@writefile{lot}{\contentsline {table}{\numberline {1}{\ignorespaces Number of individuals used in preliminary analyses (Fig. 1A), as well as number of tissues and skins available for this project through my own collecting efforts and museum holdings.\relax }}{4}{table.caption.2}}
\providecommand*\caption@xref[2]{\@setref\relax\@undefined{#1}}
\newlabel{wrap-tab:1}{{1}{4}{Number of individuals used in preliminary analyses (Fig. 1A), as well as number of tissues and skins available for this project through my own collecting efforts and museum holdings.\relax }{table.caption.2}{}}
\abx@aux@page{72}{4}
\abx@aux@page{73}{4}
\abx@aux@page{74}{4}
\abx@aux@page{75}{4}
\abx@aux@page{76}{4}
\abx@aux@page{77}{4}
\abx@aux@page{78}{4}
\abx@aux@page{79}{4}
\abx@aux@page{80}{4}
\abx@aux@page{81}{4}
\abx@aux@page{82}{4}
\abx@aux@page{83}{4}
\abx@aux@page{84}{4}
\abx@aux@page{85}{4}
\abx@aux@page{86}{4}
\abx@aux@page{87}{4}
\abx@aux@page{88}{4}
\abx@aux@page{89}{4}
\abx@aux@page{90}{4}
\abx@aux@page{91}{4}
\abx@aux@page{92}{4}
\abx@aux@page{93}{4}
\abx@aux@page{94}{4}
\abx@aux@page{95}{4}
\abx@aux@page{96}{4}
\abx@aux@page{97}{4}
\abx@aux@page{98}{4}
\abx@aux@page{99}{4}
\citation{Stevens2007}
\citation{Stoddard2008}
\citation{Pearson2012}
\citation{Schneider2012}
\citation{Troscianko2015}
\citation{Stoddard2014}
\citation{ViscarraRossel2006}
\citation{Kerr2003}
\citation{Cohen2004}
\citation{Roy2014}
\citation{Escadafal1993}
\citation{Escadafal1989}
\citation{Mattikalli1997}
\citation{Mattikalli1997}
\citation{Mulder2011}
\citation{Graham2004}
\citation{Srivastava2012}
\citation{Ives2007}
\abx@aux@page{100}{5}
\abx@aux@page{101}{5}
\abx@aux@page{102}{5}
\abx@aux@page{103}{5}
\abx@aux@page{104}{5}
\abx@aux@page{105}{5}
\abx@aux@page{106}{5}
\abx@aux@page{107}{5}
\abx@aux@page{108}{5}
\abx@aux@page{109}{5}
\abx@aux@page{110}{5}
\abx@aux@page{111}{5}
\abx@aux@page{112}{5}
\abx@aux@page{113}{5}
\abx@aux@page{114}{5}
\abx@aux@page{115}{5}
\abx@aux@page{116}{5}
\abx@aux@page{117}{5}
\abx@aux@page{118}{5}
\citation{Hijmans2005}
\citation{Fisher-Reid2012}
\citation{Title2015}
\citation{Cramp1985}
\citation{Behle1942}
\@writefile{lof}{\defcounter {refsection}{0}\relax }\@writefile{lof}{\contentsline {figure}{\numberline {2}{\ignorespaces \textbf  {Anticipated results from comparative analyses of background matching.} Hypothetical comparative data of plumage and substrate characteristics. Polygons indicate 75\% confidence intervals of hypothetical data for each species proposed by Drovetski et al. (2014). Polygon colors and point outlines match the species shown in Fig. 1. If background matching is present within \textit  {Eremophila}, I expect positive correlations between (A) substrate and dorsal reflectance or brightness; (B) substrate and dorsal hue; (C) substrate and dorsal patterning (i.e., soil/plumage feature size and dispersion).\relax }}{6}{figure.caption.3}}
\abx@aux@page{119}{6}
\abx@aux@page{120}{6}
\abx@aux@page{121}{6}
\@writefile{lof}{\defcounter {refsection}{0}\relax }\@writefile{lof}{\contentsline {figure}{\numberline {3}{\ignorespaces \textbf  {Preliminary analyses of differences in geographic variation and niche breadth among independent lineages in \textit  {Eremophila}.} The number of subspecies among independent evolutionary lineages identified by Drovetski et al. (2014) is correlated with niche volume (A), but not range size (B), within \textit  {Eremophila}\relax }}{6}{figure.caption.4}}
\abx@aux@page{122}{6}
\abx@aux@page{123}{6}
\citation{Bi2013}
\citation{Penalba2014}
\citation{Rohland2012}
\citation{Kimball2009}
\citation{Wang2012}
\citation{Backstrom2008}
\citation{Mason2015}
\citation{Mason2014a}
\citation{Mason2015a}
\citation{Mason2014}
\citation{Mason2015}
\citation{Freeman2015}
\citation{Mason2013}
\citation{Burns2014}
\citation{Barve2015}
\citation{Freeman2014}
\citation{Hof2011}
\citation{Kettlewell1955}
\citation{Hoekstra2006}
\citation{Linnen2009}
\citation{Linnen2013}
\abx@aux@page{124}{7}
\abx@aux@page{125}{7}
\abx@aux@page{126}{7}
\abx@aux@page{127}{7}
\abx@aux@page{128}{7}
\abx@aux@page{129}{7}
\abx@aux@page{130}{7}
\abx@aux@page{131}{7}
\abx@aux@page{132}{7}
\abx@aux@page{133}{7}
\abx@aux@page{134}{7}
\abx@aux@page{135}{7}
\abx@aux@page{136}{7}
\abx@aux@page{137}{7}
\abx@aux@page{138}{7}
\abx@aux@page{139}{7}
\abx@aux@page{140}{7}
\abx@aux@page{141}{7}
\abx@aux@page{142}{7}
\abx@aux@page{143}{7}
\abx@aux@page{144}{7}
\HyPL@Entry{8<</S/D>>}
\abx@aux@page{145}{1}
\abx@aux@page{146}{1}
\abx@aux@page{147}{1}
\abx@aux@page{148}{1}
\abx@aux@page{149}{1}
\abx@aux@page{150}{1}
\abx@aux@page{151}{1}
\abx@aux@page{152}{1}
\abx@aux@page{153}{1}
\abx@aux@page{154}{1}
\abx@aux@page{155}{1}
\abx@aux@page{156}{1}
\abx@aux@page{157}{1}
\abx@aux@page{158}{1}
\abx@aux@page{159}{1}
\abx@aux@page{160}{1}
\abx@aux@page{161}{1}
\abx@aux@page{162}{1}
\abx@aux@page{163}{1}
\abx@aux@page{164}{1}
\abx@aux@page{165}{1}
\abx@aux@page{166}{1}
\abx@aux@page{167}{1}
\abx@aux@page{168}{1}
\abx@aux@page{169}{1}
\abx@aux@page{170}{1}
\abx@aux@page{171}{1}
\abx@aux@page{172}{1}
\abx@aux@page{173}{1}
\abx@aux@page{174}{2}
\abx@aux@page{175}{2}
\abx@aux@page{176}{2}
\abx@aux@page{177}{2}
\abx@aux@page{178}{2}
\abx@aux@page{179}{2}
\abx@aux@page{180}{2}
\abx@aux@page{181}{2}
\abx@aux@page{182}{2}
\abx@aux@page{183}{2}
\abx@aux@page{184}{2}
\abx@aux@page{185}{2}
\abx@aux@page{186}{2}
\abx@aux@page{187}{2}
\abx@aux@page{188}{2}
\abx@aux@page{189}{2}
\abx@aux@page{190}{2}
\abx@aux@page{191}{2}
\abx@aux@page{192}{2}
\abx@aux@page{193}{2}
\abx@aux@page{194}{2}
\abx@aux@page{195}{2}
\abx@aux@page{196}{2}
\abx@aux@page{197}{2}
\abx@aux@page{198}{2}
\abx@aux@page{199}{2}
\abx@aux@page{200}{2}
\abx@aux@page{201}{3}
\abx@aux@page{202}{3}
\abx@aux@page{203}{3}
\abx@aux@page{204}{3}
\abx@aux@page{205}{3}
\abx@aux@page{206}{3}
\abx@aux@page{207}{3}
\abx@aux@page{208}{3}
\abx@aux@page{209}{3}
\abx@aux@page{210}{3}
\abx@aux@page{211}{3}
\abx@aux@page{212}{3}
\abx@aux@page{213}{3}
\abx@aux@page{214}{3}
\abx@aux@page{215}{3}
\abx@aux@page{216}{3}
\abx@aux@page{217}{3}
\abx@aux@page{218}{3}
\abx@aux@page{219}{3}
\abx@aux@page{220}{3}
\abx@aux@page{221}{3}
\abx@aux@page{222}{3}
\abx@aux@page{223}{3}
\abx@aux@page{224}{3}
\abx@aux@page{225}{3}
\abx@aux@page{226}{3}
\abx@aux@page{227}{3}
\abx@aux@page{228}{4}
\abx@aux@page{229}{4}
\abx@aux@page{230}{4}
\abx@aux@page{231}{4}
\abx@aux@page{232}{4}
\abx@aux@page{233}{4}
\abx@aux@page{234}{4}
\abx@aux@page{235}{4}
\abx@aux@page{236}{4}
\abx@aux@page{237}{4}
\abx@aux@page{238}{4}
\abx@aux@page{239}{4}
\abx@aux@page{240}{4}
\abx@aux@page{241}{4}
\abx@aux@page{242}{4}
\abx@aux@page{243}{4}
\abx@aux@page{244}{4}
\abx@aux@page{245}{4}
\abx@aux@page{246}{4}
\abx@aux@page{247}{4}
\abx@aux@page{248}{4}
