\relax 
\providecommand\hyper@newdestlabel[2]{}
\providecommand\HyperFirstAtBeginDocument{\AtBeginDocument}
\HyperFirstAtBeginDocument{\ifx\hyper@anchor\@undefined
\global\let\oldcontentsline\contentsline
\gdef\contentsline#1#2#3#4{\oldcontentsline{#1}{#2}{#3}}
\global\let\oldnewlabel\newlabel
\gdef\newlabel#1#2{\newlabelxx{#1}#2}
\gdef\newlabelxx#1#2#3#4#5#6{\oldnewlabel{#1}{{#2}{#3}}}
\AtEndDocument{\ifx\hyper@anchor\@undefined
\let\contentsline\oldcontentsline
\let\newlabel\oldnewlabel
\fi}
\fi}
\global\let\hyper@last\relax 
\gdef\HyperFirstAtBeginDocument#1{#1}
\providecommand*\HyPL@Entry[1]{}
\HyPL@Entry{0<</P()>>}
\pp@pagectr{footnote}{1}{1}{}
\pp@pagectr{footnote}{2}{1}{}
\newlabel{fn:first}{{\leavevmode {\color  {black}\TextOrMath  {\textasteriskcentered }{*}}}{}{PUBLICATIONS:}{section*.2}{}}
\pp@pagectr{footnote}{3}{2}{}
\newlabel{fn:third}{{\leavevmode {\color  {black}\TextOrMath  {\textasteriskcentered }{*}}}{}{Invited Presentations:}{section*.12}{}}
