\relax 
\citation{Chesson:2000gl}
\citation{Chase:2003ui}
\citation{Adler:2007ef}
\citation{Sommer:2002iz}
\citation{Levine:2009doa,Kraft:2015eda,Godoy:2014cx}
\citation{Adler:2006ewa,Adler:2010jt,Chu:2015dk}
\citation{Chesson:2000gl}
\citation{Kuang:2010fx}
\citation{Wagg:2011vr}
\citation{Pauw:2013kl}
\citation{HilleRisLambers:2012jvc,Angert:2009hba}
\citation{Amarasekare:2003cka}
\citation{Sytsma:1990fi}
\citation{IndraniCornellUniversitySingh:2S0icDGp}
\citation{Eckhart:2013tl}
\citation{Eckhart:2013tl}
\citation{Howland:2015vp}
\citation{Eckhart:2013tl}
\citation{Lewis:1955uh}
\citation{Moeller:2004ck}
\citation{Moeller:2004ck}
\citation{Moeller:2004ck}
\citation{Dybzinski:2007hh,Soliveres:2015iz,Tubay:2015bd,Bengtsson:1994ksa}
\citation{Amarasekare:2003cka,Chesson:2000kt,Chesson:2000gl}
\citation{Amarasekare:2003cka}
\citation{Stoll:2008jb}
\citation{Amarasekare:2003cka,Chesson:2000kt,Chesson:2000gl}
\citation{Godoy:2014io,Chesson:2000gl}
\citation{Godoy:2014io,Godoy:2014cx}
\citation{Chesson:2000gl,Godoy:2014io,Chesson:2010bi}
\@writefile{lof}{\contentsline {figure}{\numberline {1}{\ignorespaces Schematic of the competition experiment testing for competitive hierarchies within and between microsite types. Each large box represents the microsite type, and each small box represents a plot. The background species sown into each plot is represented by the hue of the plot; increasing color intensity indicates increasing background density. The schematic depicted represents one of two experimental replicates.\relax }}{4}}
\providecommand*\caption@xref[2]{\@setref\relax\@undefined{#1}}
\newlabel{fig:godoy}{{1}{4}}
\newlabel{eq:nt1}{{1}{4}}
\newlabel{eq:fec}{{2}{4}}
\newlabel{eq:rho}{{3}{4}}
\citation{Godoy:2014cx}
\citation{Chesson:2000gl,Godoy:2014io,Chesson:2008id,Godoy:2014cx,Chesson:1997ge}
\citation{Godoy:2014io,Godoy:2014cx}
\newlabel{eq:kappa}{{4}{5}}
\newlabel{eq:eta}{{5}{5}}
\newlabel{eq:coex}{{6}{5}}
\citation{Kipling:2014ix,Vamosi:2006wj,Morales:2008dw,BriscoeRunquist:2012bf}
\citation{Benadi:2015km,Ghazoul:2006ip,Feldman:2004wu,Pauw:2013kl}
\citation{Morales:2008dw,Robertson:1895bs}
\citation{ArceoGomez:2015fd,Morales:2008dw,ArceoGomez:2014go}
\citation{CaneSipes:006YePOz}
\citation{Waser:1986et}
\@writefile{lof}{\contentsline {figure}{\numberline {2}{\ignorespaces Microsite locations of each of the four species in the selected site in the KRC. Microsites were delimited according to plant distributions in summer 2015, and measured in October 2015.\relax }}{6}}
\newlabel{fig:map}{{2}{6}}
\citation{Morales:2008dw,Waser:1986et}
\citation{Moeller:2004ck}
\citation{Moeller:2004ck}
\@writefile{lot}{\contentsline {table}{\numberline {1}{\ignorespaces Likelihood of interspecific pollen transfer (IPT) according to individual foraging behaviors. The highest likelihood for IPT is when bees are not florally constant and they do not have a fixed preference, meaning they switch plants within and between foraging bouts.\relax }}{7}}
\newlabel{tab:const}{{1}{7}}
\citation{Waser:1998bfa,Waser:2004ju,Michener:2007ve}
\citation{Waser:1998bfa}
\citation{Schmitt:1983gt,Essenberg:2012jc,Kunin:1997if,Sowig:1989fu}
\citation{Drescher:2014if,Moeller:2005ej,Janovsky:2013kfa,Potts:2006cr}
\citation{Moeller:2005ej}
\citation{Janovsky:2013kfa}
\citation{Moeller:2004ck}
\citation{Feldman:2004wu,Liao:2011gp,Kunin:1996vo}
\citation{Kunin:1997if,Fortner:2009by}
\citation{Bateman:1951kw,CaneSipes:006YePOz,Waser:2008be}
\citation{Geber:2006wx}
\citation{Siepielski:2010jp}
\citation{Agrawal:2007el,HilleRisLambers:2012jvc}
\bibstyle{ecology}
\bibdata{dissertation}
\bibcite{Adler:2010jt}{{1}{2010}{{Adler et~al.}}{{Adler, Ellner, and Levine}}}
\bibcite{Adler:2006ewa}{{2}{2006}{{Adler et~al.}}{{Adler, Hillerislambers, Kyriakidis, Guan, and Levine}}}
\bibcite{Adler:2007ef}{{3}{2007}{{Adler et~al.}}{{Adler, Hillerislambers, and Levine}}}
\bibcite{Agrawal:2007el}{{4}{2007}{{Agrawal et~al.}}{{Agrawal, Ackerly, and Adler}}}
\bibcite{Amarasekare:2003cka}{{5}{2003}{{Amarasekare}}{{}}}
\bibcite{Angert:2009hba}{{6}{2009}{{Angert et~al.}}{{Angert, Huxman, Chesson, and Venable}}}
\bibcite{ArceoGomez:2015fd}{{7}{2015}{{Arceo-G{\'o}mez et~al.}}{{Arceo-G{\'o}mez, Abdala-Roberts, Jankowiak, Kohler, Meindl, Navarro-Fern{\'a}ndez, Parra-Tabla, Ashman, and Alonso}}}
\bibcite{ArceoGomez:2014go}{{8}{2014}{{Arceo-G{\'o}mez and Ashman}}{{}}}
\bibcite{Bateman:1951kw}{{9}{1951}{{Bateman}}{{}}}
\bibcite{Benadi:2015km}{{10}{2015}{{Benadi}}{{}}}
\bibcite{Bengtsson:1994ksa}{{11}{1994}{{Bengtsson et~al.}}{{Bengtsson, Fagerstr{\"o}m, and Rydin}}}
\bibcite{BriscoeRunquist:2012bf}{{12}{2012}{{Briscoe~Runquist}}{{}}}
\bibcite{CaneSipes:006YePOz}{{13}{2006}{{Cane and Sipes}}{{}}}
\bibcite{Chase:2003ui}{{14}{2003}{{Chase and Leibold}}{{}}}
\bibcite{Chesson:2000kt}{{15}{2000{}}{{Chesson}}{{}}}
\bibcite{Chesson:2000gl}{{16}{2000{}}{{Chesson}}{{}}}
\bibcite{Chesson:1997ge}{{17}{1997}{{Chesson and Huntly}}{{}}}
\bibcite{Chesson:2008id}{{18}{2008}{{Chesson and Kuang}}{{}}}
\bibcite{Chesson:2010bi}{{19}{2010}{{Chesson and Kuang}}{{}}}
\bibcite{Chu:2015dk}{{20}{2015}{{Chu and Adler}}{{}}}
\bibcite{Drescher:2014if}{{21}{2014}{{Drescher et~al.}}{{Drescher, Wallace, Katouli, Massaro, and Leonhardt}}}
\bibcite{Dybzinski:2007hh}{{22}{2007}{{Dybzinski and Tilman}}{{}}}
\bibcite{Eckhart:2013tl}{{23}{2013}{{Eckhart et~al.}}{{Eckhart, Jennison, Kircher, and Montgomery}}}
\bibcite{Essenberg:2012jc}{{24}{2012}{{Essenberg}}{{}}}
\bibcite{Feldman:2004wu}{{25}{2004}{{Feldman et~al.}}{{Feldman, Morris, and Wilson}}}
\bibcite{Fortner:2009by}{{26}{2007}{{Fortner and Weltzin}}{{}}}
\bibcite{Geber:2006wx}{{27}{2006}{{Geber and Moeller}}{{}}}
\bibcite{Ghazoul:2006ip}{{28}{2006}{{Ghazoul}}{{}}}
\bibcite{Godoy:2014cx}{{29}{2014}{{Godoy et~al.}}{{Godoy, Kraft, and Levine}}}
\bibcite{Godoy:2014io}{{30}{2014}{{Godoy and Levine}}{{}}}
\bibcite{HilleRisLambers:2012jvc}{{31}{2012}{{HilleRisLambers et~al.}}{{HilleRisLambers, Adler, Harpole, Levine, and Mayfield}}}
\bibcite{Howland:2015vp}{{32}{2015}{{Howland}}{{}}}
\bibcite{Janovsky:2013kfa}{{33}{2013}{{Janovsky et~al.}}{{Janovsky, Mikat, Hadrava, Horcickova, Kmecova, Pozarova, Smycka, and Herben}}}
\bibcite{Kipling:2014ix}{{34}{2014}{{Kipling and Warren}}{{}}}
\bibcite{Kraft:2015eda}{{35}{2015}{{Kraft et~al.}}{{Kraft, Godoy, and Levine}}}
\bibcite{Kuang:2010fx}{{36}{2010}{{Kuang and Chesson}}{{}}}
\bibcite{Kunin:1996vo}{{37}{1996}{{Kunin and Iwasa}}{{}}}
\bibcite{Kunin:1997if}{{38}{1997}{{Kunin}}{{}}}
\bibcite{Levine:2009doa}{{39}{2009}{{Levine and Hillerislambers}}{{}}}
\bibcite{Lewis:1955uh}{{40}{1955}{{Lewis and Lewis}}{{}}}
\bibcite{Liao:2011gp}{{41}{2011}{{Liao et~al.}}{{Liao, Gituru, Guo, and Wang}}}
\bibcite{Michener:2007ve}{{42}{2007}{{Michener}}{{}}}
\bibcite{Moeller:2004ck}{{43}{2004}{{Moeller}}{{}}}
\bibcite{Moeller:2005ej}{{44}{2005}{{Moeller and Geber}}{{}}}
\bibcite{Morales:2008dw}{{45}{2008}{{Morales and Traveset}}{{}}}
\bibcite{Pauw:2013kl}{{46}{2013}{{Pauw}}{{}}}
\bibcite{Potts:2006cr}{{47}{2006}{{Potts et~al.}}{{Potts, Petanidou, Roberts, O{\textquoteright }Toole, Hulbert, and Willmer}}}
\bibcite{Robertson:1895bs}{{48}{1895}{{Robertson}}{{}}}
\bibcite{Schmitt:1983gt}{{49}{1983}{{Schmitt}}{{}}}
\bibcite{Siepielski:2010jp}{{50}{2010}{{Siepielski and McPeek}}{{}}}
\bibcite{IndraniCornellUniversitySingh:2S0icDGp}{{51}{2013}{{Singh}}{{}}}
\bibcite{Soliveres:2015iz}{{52}{2015}{{Soliveres et~al.}}{{Soliveres, Maestre, Ulrich, Manning, Boch, Bowker, Prati, Delgado-Baquerizo, Quero, Sch{\"o}ning, Gallardo, Weisser, M{\"u}ller, Socher, Garc{\'\i }a-G{\'o}mez, Ochoa, Schulze, Fischer, and Allan}}}
\bibcite{Sommer:2002iz}{{53}{2002}{{{Sommer, U} and {Worm, B}}}{{}}}
\bibcite{Sowig:1989fu}{{54}{1989}{{Sowig}}{{}}}
\bibcite{Stoll:2008jb}{{55}{2001}{{Stoll and Prati}}{{}}}
\bibcite{Sytsma:1990fi}{{56}{1990}{{Sytsma et~al.}}{{Sytsma, Smith, and Gottlieb}}}
\bibcite{Tubay:2015bd}{{57}{2015}{{Tubay et~al.}}{{Tubay, Suzuki, Uehara, Kakishima, Ito, Ishida, Yoshida, Mori, Rabajante, Morita, YOKOZAWA, and Yoshimura}}}
\bibcite{Vamosi:2006wj}{{58}{2006}{{Vamosi et~al.}}{{Vamosi, Knight, Steets, Mazer, Burd, and Ashman}}}
\bibcite{Wagg:2011vr}{{59}{2011}{{Wagg et~al.}}{{Wagg, Jansa, Stadler, Schmid, and Van Der~Heijden}}}
\bibcite{Waser:1986et}{{60}{1986}{{Waser}}{{}}}
\bibcite{Waser:1998bfa}{{61}{1998}{{Waser}}{{}}}
\bibcite{Waser:2004ju}{{62}{2004}{{Waser and Campbell}}{{}}}
\bibcite{Waser:2008be}{{63}{2008}{{Waser et~al.}}{{Waser, Chittka, Price, Williams, and Ollerton}}}
