\relax 
\@writefile{lof}{\contentsline {figure}{\numberline {1}{\ignorespaces Clarkia life history and and example of hypothesized biotic interactions.}}{3}}
\@writefile{lof}{\contentsline {figure}{\numberline {2}{\ignorespaces Flow diagram of the biotic interactions my dissertation work is concerned with. Stars indicate where my empirical research will inform how the two groups interact.}}{3}}
\@writefile{lof}{\contentsline {figure}{\numberline {3}{\ignorespaces Experimental design adapted from Godoy et al. 2014.}}{6}}
\citation{Waser:1998bfa,Waser:2004ju,Vamosi:2006wj,Benadi:2013dc}
\citation{Waser:1998bfa,Waser:2004ju,Michener:2007ve}
\citation{ArceoGomez:2014go,ArceoGomez:2015fd}
\citation{Schmitt:1983gt,Essenberg:2013dw,Kunin:1997if,Sowig:1989fu}
\citation{Drescher:2014if,Moeller:2005ej,Janovsky:2013kf,Potts:2006cr}
\citation{OToole:1997wo,CaneSipes:006YePOz}
\citation{Michener:2007ve,CaneSipes:006YePOz}
\citation{Lewis:1955uh,MacSwain:1973vh,Moeller:2005ej,Geber:2006wx,Moeller:2008ic}
\citation{Moeller:2005ej}
\citation{Feldman:2004wu,Liao:2011gp,Kunin:1996vo}
\citation{Kunin:1997if,Fortner:2009by}
\citation{CaneSipes:006YePOz,Waser:2008be}
\citation{Geber:2006wx}
\citation{CaneSipes:006YePOz,Feldman:2004wu}
\bibstyle{ecology}
\bibdata{dissertation}
