\beamer@endinputifotherversion {3.36pt}
\headcommand {\slideentry {0}{0}{1}{1/1}{}{0}}
\headcommand {\beamer@framepages {1}{1}}
\headcommand {\sectionentry {1}{Introduction}{2}{Introduction}{0}}
\headcommand {\beamer@sectionpages {1}{1}}
\headcommand {\beamer@subsectionpages {1}{1}}
\headcommand {\slideentry {1}{0}{1}{2/2}{}{0}}
\headcommand {\beamer@framepages {2}{2}}
\headcommand {\slideentry {1}{0}{2}{3/3}{}{0}}
\headcommand {\beamer@framepages {3}{3}}
\headcommand {\slideentry {1}{0}{3}{4/4}{}{0}}
\headcommand {\beamer@framepages {4}{4}}
\headcommand {\slideentry {1}{0}{4}{5/5}{}{0}}
\headcommand {\beamer@framepages {5}{5}}
\headcommand {\slideentry {1}{0}{5}{6/6}{}{0}}
\headcommand {\beamer@framepages {6}{6}}
\headcommand {\sectionentry {2}{Organizing slides}{7}{Organizing slides}{0}}
\headcommand {\beamer@sectionpages {2}{6}}
\headcommand {\beamer@subsectionpages {2}{6}}
\headcommand {\slideentry {2}{0}{1}{7/7}{}{0}}
\headcommand {\beamer@framepages {7}{7}}
\headcommand {\slideentry {2}{0}{2}{8/8}{}{0}}
\headcommand {\beamer@framepages {8}{8}}
\headcommand {\beamer@subsectionentry {0}{2}{1}{9}{Columns}}\headcommand {\beamer@subsectionpages {7}{8}}
\headcommand {\slideentry {2}{1}{1}{9/9}{Columns}{0}}
\headcommand {\beamer@framepages {9}{9}}
\headcommand {\beamer@subsectionentry {0}{2}{2}{10}{Pretty Boxes}}\headcommand {\beamer@subsectionpages {9}{9}}
\headcommand {\slideentry {2}{2}{1}{10/10}{Pretty Boxes}{0}}
\headcommand {\beamer@framepages {10}{10}}
\headcommand {\slideentry {2}{2}{2}{11/11}{Pretty Boxes}{0}}
\headcommand {\beamer@framepages {11}{11}}
\headcommand {\sectionentry {3}{Overlays (Transitions, kinda)}{12}{Overlays (Transitions, kinda)}{0}}
\headcommand {\beamer@sectionpages {7}{11}}
\headcommand {\beamer@subsectionpages {10}{11}}
\headcommand {\slideentry {3}{0}{1}{12/12}{}{0}}
\headcommand {\beamer@framepages {12}{12}}
\headcommand {\beamer@subsectionentry {0}{3}{1}{13}{Pause}}\headcommand {\beamer@subsectionpages {12}{12}}
\headcommand {\slideentry {3}{1}{1}{13/15}{Pause}{0}}
\headcommand {\beamer@framepages {13}{15}}
\headcommand {\beamer@subsectionentry {0}{3}{2}{16}{Other overlays}}\headcommand {\beamer@subsectionpages {13}{15}}
\headcommand {\slideentry {3}{2}{1}{16/21}{Other overlays}{0}}
\headcommand {\beamer@framepages {16}{21}}
\headcommand {\slideentry {3}{2}{2}{22/24}{Other overlays}{0}}
\headcommand {\beamer@framepages {22}{24}}
\headcommand {\slideentry {3}{2}{3}{25/27}{Other overlays}{0}}
\headcommand {\beamer@framepages {25}{27}}
\headcommand {\slideentry {3}{2}{4}{28/28}{Other overlays}{0}}
\headcommand {\beamer@framepages {28}{28}}
\headcommand {\slideentry {3}{2}{5}{29/29}{Other overlays}{0}}
\headcommand {\beamer@framepages {29}{29}}
\headcommand {\beamer@partpages {1}{29}}
\headcommand {\beamer@subsectionpages {16}{29}}
\headcommand {\beamer@sectionpages {12}{29}}
\headcommand {\beamer@documentpages {29}}
\headcommand {\def \inserttotalframenumber {18}}
